{
    "Name" : "Une salle troué",
    "Fluff" : "La salle où vous entrez est parsemé de trous cylindriques dans les murs. Comment décidez-vous de la traverser?",
    "Actions" : [{"Text": "De manière normale. Ce ne sont pas des trous qui vont m'apeurer!", "NextEvent" : "B5"},
        {"Text": "Je ne prend pas de risques. Je rampe pour ne pas être aux hauteurs des trous", "NextEvent" : "T2"}]
}