{
    "Name" : "Butin de pierre",
    "Fluff" : "Le golem tombe en morceau et prend la forme d'une armure de lave. La prenez-vous?",
    "Armor" : {"Name": "Armure de lave", "Bonus": 3},
    "Actions" : [{"Text": "Oui", "HasLoot" : true}, {"Text": "Non", "HasLoot" : false}],
	"NextEvent" : "B6"
}